<!DOCTYPE svg PUBLIC "-//W3C//DTD SVG 1.1//EN" "http://www.w3.org/Graphics/SVG/1.1/DTD/svg11.dtd">

<!-- Uploaded to: SVG Repo, www.svgrepo.com, Transformed by: SVG Repo Mixer Tools -->
<svg fill="rgb(2, 160, 245)" height="40px" width="40px" version="1.1" id="Layer_1" xmlns="http://www.w3.org/2000/svg" xmlns:xlink="http://www.w3.org/1999/xlink" viewBox="0 0 512 512" xml:space="preserve">

<g id="SVGRepo_bgCarrier" stroke-width="0"/>

<g id="SVGRepo_tracerCarrier" stroke-linecap="round" stroke-linejoin="round"/>

<g id="SVGRepo_iconCarrier"> <g> <g> <path d="M256,0C114.623,0,0,114.614,0,256c0,141.377,114.623,256,256,256c141.386,0,256-114.623,256-256 C512,114.614,397.39,0,256,0z M186.575,403.543l15.581-166.373h91.606l20.198,166.373H186.575z M352.749,233.173 c-20.698-0.753-37.103-7.662-48.762-20.539c-6.241-6.896-10.203-14.638-12.753-21.964h-17.79v24.527h-51.382V190.67h-58.243 l26.506-73.364h141.368l-18.241,50.488c0.403,6.206,2.253,18.308,10.353,27.156c6.662,7.273,16.723,11.203,29.914,11.681 L352.749,233.173z"/> </g> </g> </g>

</svg>